<?xml version="1.0" encoding="utf-8"?>
<!-- Generator: Adobe Illustrator 21.1.0, SVG Export Plug-In . SVG Version: 6.00 Build 0)  -->
<svg version="1.1" id="Capa_1" xmlns="http://www.w3.org/2000/svg" xmlns:xlink="http://www.w3.org/1999/xlink" x="0px" y="0px"
	 viewBox="0 0 56.1 94" style="enable-background:new 0 0 56.1 94;" xml:space="preserve">
<style type="text/css">
	.st0{clip-path:url(#SVGID_2_);}
	.st1{fill:#EB0029;}
	.st2{fill:#DE0029;}
	.st3{fill:url(#SVGID_3_);}
</style>
<g>
	<g>
		<g>
			<g>
				<g>
					<defs>
						<rect id="SVGID_1_" width="56.1" height="94.4"/>
					</defs>
					<clipPath id="SVGID_2_">
						<use xlink:href="#SVGID_1_"  style="overflow:visible;"/>
					</clipPath>
					<g id="fondo_2_" class="st0">
						<rect class="st1" width="56.1" height="94.4"/>
					</g>
				</g>
			</g>
		</g>
	</g>
</g>
<g>
	<polygon class="st2" points="0,5.4 15.1,5.4 28.1,5.4 28.1,0 0,0 	"/>
	<polygon class="st2" points="15.1,61.5 28.1,61.5 28.1,48.5 28.1,33.4 43.2,33.4 56.1,33.4 56.1,20.5 56.1,5.4 56.1,0 43.2,0 
		43.2,5.4 43.2,20.5 28.1,20.5 15.1,20.5 15.1,33.4 15.1,48.5 0,48.5 0,61.5 	"/>
	<polygon class="st2" points="43.2,48.5 43.2,61.5 43.2,76.6 28.1,76.6 15.1,76.6 15.1,89.5 15.1,94.4 28.1,94.4 28.1,89.5 
		43.2,89.5 56.1,89.5 56.1,76.6 56.1,61.5 56.1,48.5 	"/>
</g>
<g id="fondo_1_">
	
		<linearGradient id="SVGID_3_" gradientUnits="userSpaceOnUse" x1="28.05" y1="-1726.4" x2="28.05" y2="-1632" gradientTransform="matrix(1 0 0 -1 0 -1632)">
		<stop  offset="0" style="stop-color:#EB0029"/>
		<stop  offset="1" style="stop-color:#EB0029;stop-opacity:0"/>
	</linearGradient>
	<rect class="st3" width="56.1" height="94.4"/>
</g>
</svg>
