<svg version="1.1" id="el_7-ISw42i-" xmlns="http://www.w3.org/2000/svg" xmlns:xlink="http://www.w3.org/1999/xlink" x="0px" y="0px" viewBox="0 0 493 493" style="enable-background:new 0 0 493.7 493.7;" xml:space="preserve"><style>@-webkit-keyframes el_8dHR4-GyMMZ_tkJG17h9j_Animation{0%{-webkit-transform: scale(0, 1);transform: scale(0, 1);}83.33%{-webkit-transform: scale(1, 1);transform: scale(1, 1);}100%{-webkit-transform: scale(1, 1);transform: scale(1, 1);}}@keyframes el_8dHR4-GyMMZ_tkJG17h9j_Animation{0%{-webkit-transform: scale(0, 1);transform: scale(0, 1);}83.33%{-webkit-transform: scale(1, 1);transform: scale(1, 1);}100%{-webkit-transform: scale(1, 1);transform: scale(1, 1);}}@-webkit-keyframes el_b4jASLw4Tfb_HDJyV3tgD_Animation{0%{-webkit-transform: scale(0, 1);transform: scale(0, 1);}83.33%{-webkit-transform: scale(1, 1);transform: scale(1, 1);}100%{-webkit-transform: scale(1, 1);transform: scale(1, 1);}}@keyframes el_b4jASLw4Tfb_HDJyV3tgD_Animation{0%{-webkit-transform: scale(0, 1);transform: scale(0, 1);}83.33%{-webkit-transform: scale(1, 1);transform: scale(1, 1);}100%{-webkit-transform: scale(1, 1);transform: scale(1, 1);}}@-webkit-keyframes el_wiL6rGbJ8eG_VF5KIrPQF_Animation{0%{-webkit-transform: scale(0, 1);transform: scale(0, 1);}83.33%{-webkit-transform: scale(1, 1);transform: scale(1, 1);}100%{-webkit-transform: scale(1, 1);transform: scale(1, 1);}}@keyframes el_wiL6rGbJ8eG_VF5KIrPQF_Animation{0%{-webkit-transform: scale(0, 1);transform: scale(0, 1);}83.33%{-webkit-transform: scale(1, 1);transform: scale(1, 1);}100%{-webkit-transform: scale(1, 1);transform: scale(1, 1);}}@-webkit-keyframes el_UiXVL1bcj9_Animation{33.33%{opacity: 0;}83.33%{opacity: 1;}0%{opacity: 0;}100%{opacity: 1;}}@keyframes el_UiXVL1bcj9_Animation{33.33%{opacity: 0;}83.33%{opacity: 1;}0%{opacity: 0;}100%{opacity: 1;}}@-webkit-keyframes el_Ihsby-cgQD_vVVTDxLc6_Animation{0%{-webkit-transform: scale(0, 1);transform: scale(0, 1);}66.67%{-webkit-transform: scale(1, 1);transform: scale(1, 1);}100%{-webkit-transform: scale(1, 1);transform: scale(1, 1);}}@keyframes el_Ihsby-cgQD_vVVTDxLc6_Animation{0%{-webkit-transform: scale(0, 1);transform: scale(0, 1);}66.67%{-webkit-transform: scale(1, 1);transform: scale(1, 1);}100%{-webkit-transform: scale(1, 1);transform: scale(1, 1);}}@-webkit-keyframes el_wJVtxBQMxG_Animation{0%{opacity: 0;}83.33%{opacity: 1;}100%{opacity: 1;}}@keyframes el_wJVtxBQMxG_Animation{0%{opacity: 0;}83.33%{opacity: 1;}100%{opacity: 1;}}@-webkit-keyframes el_wJVtxBQMxG_1fipywM2y_Animation{0%{-webkit-transform: translate(0px, 50px);transform: translate(0px, 50px);}83.33%{-webkit-transform: translate(0px, 0px);transform: translate(0px, 0px);}100%{-webkit-transform: translate(0px, 0px);transform: translate(0px, 0px);}}@keyframes el_wJVtxBQMxG_1fipywM2y_Animation{0%{-webkit-transform: translate(0px, 50px);transform: translate(0px, 50px);}83.33%{-webkit-transform: translate(0px, 0px);transform: translate(0px, 0px);}100%{-webkit-transform: translate(0px, 0px);transform: translate(0px, 0px);}}@-webkit-keyframes el_sZSA_T_pmd_UbRP7W1eh_Animation{0%{-webkit-transform: scale(0.95, 0.95);transform: scale(0.95, 0.95);}83.33%{-webkit-transform: scale(1, 1);transform: scale(1, 1);}100%{-webkit-transform: scale(1, 1);transform: scale(1, 1);}}@keyframes el_sZSA_T_pmd_UbRP7W1eh_Animation{0%{-webkit-transform: scale(0.95, 0.95);transform: scale(0.95, 0.95);}83.33%{-webkit-transform: scale(1, 1);transform: scale(1, 1);}100%{-webkit-transform: scale(1, 1);transform: scale(1, 1);}}@-webkit-keyframes el_sZSA_T_pmd_Animation{0%{opacity: 0;}83.33%{opacity: 1;}100%{opacity: 1;}}@keyframes el_sZSA_T_pmd_Animation{0%{opacity: 0;}83.33%{opacity: 1;}100%{opacity: 1;}}#el_7-ISw42i- *{-webkit-animation-duration: 0.6s;animation-duration: 0.6s;-webkit-animation-timing-function: cubic-bezier(0, 0, 1, 1);animation-timing-function: cubic-bezier(0, 0, 1, 1);}#el_sZSA_T_pmd{fill: #DEDEDE;-webkit-animation-name: el_sZSA_T_pmd_Animation;animation-name: el_sZSA_T_pmd_Animation;-webkit-animation-timing-function: cubic-bezier(0.42, 0, 1, 1);animation-timing-function: cubic-bezier(0.42, 0, 1, 1);opacity: 1;}#el_19FBpwyKiU{fill: url(#SVGID_1_);}#el_Ihsby-cgQD{opacity: 0.15;fill: #333333;}#el_lMbInTzTbO{fill-rule: evenodd;clip-rule: evenodd;fill: #FFFFFF;}#el_Wyy8eoA_Da{fill-rule: evenodd;clip-rule: evenodd;fill: #FFFFFF;}#el_nyFnWpx_KK{fill-rule: evenodd;clip-rule: evenodd;fill: #FFFFFF;}#el_FdgAq1foV_{fill: #FFFFFF;}#el_9yFvGFld8y{fill: #FFFFFF;}#el_EqKQY94c06{fill: #FFFFFF;}#el_RHoAMXOZ3rq{fill: #FFFFFF;}#el_tm2cEqwnRn5{fill: #FFFFFF;}#el_MXxHOeVsoOd{fill: #FFFFFF;}#el_W6X_WZQEu3t{fill: #FFFFFF;}#el_wiL6rGbJ8eG{opacity: 0.33;fill: #F0E7DD;}#el_b4jASLw4Tfb{opacity: 0.33;fill: #F0E7DD;}#el_8dHR4-GyMMZ{fill: #F0BD7F;}#el_sZSA_T_pmd_UbRP7W1eh{-webkit-animation-name: el_sZSA_T_pmd_UbRP7W1eh_Animation;animation-name: el_sZSA_T_pmd_UbRP7W1eh_Animation;-webkit-animation-timing-function: cubic-bezier(0, 0, 0.58, 1);animation-timing-function: cubic-bezier(0, 0, 0.58, 1);-webkit-transform-origin: 50% 50%;transform-origin: 50% 50%;transform-box: fill-box;-webkit-transform: scale(1, 1);transform: scale(1, 1);}#el_wJVtxBQMxG_1fipywM2y{-webkit-animation-name: el_wJVtxBQMxG_1fipywM2y_Animation;animation-name: el_wJVtxBQMxG_1fipywM2y_Animation;-webkit-animation-timing-function: cubic-bezier(0, 0, 0.58, 1);animation-timing-function: cubic-bezier(0, 0, 0.58, 1);-webkit-transform-origin: 50% 50%;transform-origin: 50% 50%;transform-box: fill-box;-webkit-transform: translate(0px, 0px);transform: translate(0px, 0px);}#el_wJVtxBQMxG_n4SaL3SfZ{-webkit-transform-origin: 50% 50%;transform-origin: 50% 50%;transform-box: fill-box;-webkit-transform: rotate(19deg);transform: rotate(19deg);}#el_wJVtxBQMxG{-webkit-animation-name: el_wJVtxBQMxG_Animation;animation-name: el_wJVtxBQMxG_Animation;opacity: 1;}#el_Ihsby-cgQD_vVVTDxLc6{-webkit-animation-name: el_Ihsby-cgQD_vVVTDxLc6_Animation;animation-name: el_Ihsby-cgQD_vVVTDxLc6_Animation;-webkit-animation-timing-function: cubic-bezier(0, 0, 0.58, 1);animation-timing-function: cubic-bezier(0, 0, 0.58, 1);-webkit-transform-origin: 0% 50%;transform-origin: 0% 50%;transform-box: fill-box;-webkit-transform: scale(1, 1);transform: scale(1, 1);}#el_UiXVL1bcj9{-webkit-animation-name: el_UiXVL1bcj9_Animation;animation-name: el_UiXVL1bcj9_Animation;opacity: 1;}#el_wiL6rGbJ8eG_VF5KIrPQF{-webkit-animation-name: el_wiL6rGbJ8eG_VF5KIrPQF_Animation;animation-name: el_wiL6rGbJ8eG_VF5KIrPQF_Animation;-webkit-animation-timing-function: cubic-bezier(0, 0, 0.58, 1);animation-timing-function: cubic-bezier(0, 0, 0.58, 1);-webkit-transform-origin: 0% 50%;transform-origin: 0% 50%;transform-box: fill-box;-webkit-transform: scale(1, 1);transform: scale(1, 1);}#el_b4jASLw4Tfb_HDJyV3tgD{-webkit-animation-name: el_b4jASLw4Tfb_HDJyV3tgD_Animation;animation-name: el_b4jASLw4Tfb_HDJyV3tgD_Animation;-webkit-animation-timing-function: cubic-bezier(0, 0, 0.58, 1);animation-timing-function: cubic-bezier(0, 0, 0.58, 1);-webkit-transform-origin: 0% 50%;transform-origin: 0% 50%;transform-box: fill-box;-webkit-transform: scale(1, 1);transform: scale(1, 1);}#el_8dHR4-GyMMZ_tkJG17h9j{-webkit-animation-name: el_8dHR4-GyMMZ_tkJG17h9j_Animation;animation-name: el_8dHR4-GyMMZ_tkJG17h9j_Animation;-webkit-animation-timing-function: cubic-bezier(0, 0, 0.58, 1);animation-timing-function: cubic-bezier(0, 0, 0.58, 1);-webkit-transform-origin: 0% 50%;transform-origin: 0% 50%;transform-box: fill-box;-webkit-transform: scale(1, 1);transform: scale(1, 1);}</style>

<g id="el_sZSA_T_pmd_UbRP7W1eh" data-animator-group="true" data-animator-type="2"><circle cx="246.9" cy="246.9" r="228.5" id="el_sZSA_T_pmd"/></g>
<g id="el_wJVtxBQMxG_1fipywM2y" data-animator-group="true" data-animator-type="0"><g id="el_wJVtxBQMxG">
	<g id="el_Qs1KXEdq83">
		
			<linearGradient id="SVGID_1_" gradientUnits="userSpaceOnUse" x1="1682.1318" y1="296.1447" x2="2032.4269" y2="296.1447" gradientTransform="matrix(1 -3.675245e-03 3.675245e-03 1 -1611.4952 -42.4574)">
			<stop offset="1.543445e-03" style="stop-color:#B83F3F"/>
			<stop offset="0.258" style="stop-color:#B43B3B"/>
			<stop offset="0.536" style="stop-color:#A73131"/>
			<stop offset="0.8231" style="stop-color:#912020"/>
			<stop offset="0.9984" style="stop-color:#801212"/>
		</linearGradient>
		<path d="M397.3,345.1l-300.2,1.1C83.3,346.2,72,335,72,321.2l-0.5-147.4c-0.1-13.8,11.1-25.1,25-25.1l300.2-1.1&#10;&#9;&#9;&#9;c13.8-0.1,25.1,11.1,25.1,25l0.5,147.4C422.3,333.8,411.2,345,397.3,345.1z" id="el_19FBpwyKiU"/>
	</g>
	<g id="el_Ihsby-cgQD_vVVTDxLc6" data-animator-group="true" data-animator-type="2"><path d="M200.1,208l-128.6,0.5l-0.1-35l128.6-0.5c3.5,0,6.4,2.8,6.4,6.3l0.1,22.3C206.5,205.1,203.6,208,200.1,208z" id="el_Ihsby-cgQD"/></g>
	<g id="el_UiXVL1bcj9">
		<g id="el_pKy3dd2hZT">
			<g id="el_0mFo8y72jy">
				<path d="M106.4,187.6c-0.1-0.3-0.3-0.5-0.5-0.7c-0.4-0.3-0.8-0.5-1.2-0.7c-1.1-0.5-2.4-0.7-3.6-0.9&#10;&#9;&#9;&#9;&#9;&#9;c-0.7-0.1-1.5-0.1-2.3-0.2c-1-0.1-2.1,0-3.1,0.1c-0.8,0.1-1.7,0.2-2.5,0.3c-0.9,0.2-1.9,0.4-2.7,0.8c-0.4,0.2-0.8,0.5-1.2,0.8&#10;&#9;&#9;&#9;&#9;&#9;c-0.5,0.5-0.5,1.1,0,1.7c0.2,0.2,0.4,0.4,0.7,0.5c0.6,0.4,1.4,0.6,2.1,0.8c0.8,0.2,1.6,0.3,2.4,0.5c0.3,0,0.6,0.1,0.9,0.1&#10;&#9;&#9;&#9;&#9;&#9;c0.5-1.6,1-3.1,1.5-4.7c0,0,0,0,0,0c0.1,1.6,0.2,3.2,0.3,4.8c0.1,0,0.2,0,0.3,0c0.6,0,1.2,0,1.9-0.1c0.9,0,1.9-0.2,2.8-0.3&#10;&#9;&#9;&#9;&#9;&#9;c0.9-0.2,1.8-0.4,2.7-0.8c0.5-0.2,1-0.5,1.3-0.9C106.4,188.4,106.6,188,106.4,187.6z" id="el_lMbInTzTbO"/>
				<path d="M95,191c-1.1,0-2.2,0.1-3.3,0.3c-1,0.2-2,0.5-3,0.9c-0.6,0.3-1.2,0.6-1.6,1.1c-0.4,0.4-0.5,0.9-0.4,1.5&#10;&#9;&#9;&#9;&#9;&#9;c0.2,0.5,0.5,0.8,0.9,1.1c0.7,0.5,1.5,0.8,2.3,1.1c0.9,0.3,1.7,0.4,2.6,0.6c0.1,0,0.3,0,0.4,0c0.7-2.2,1.4-4.4,2.1-6.6&#10;&#9;&#9;&#9;&#9;&#9;C95.2,191,95.1,191,95,191z" id="el_Wyy8eoA_Da"/>
				<path d="M102.9,192.5c-0.8-0.5-1.6-0.8-2.5-1c-0.9-0.2-1.7-0.4-2.6-0.4c-0.2,0-0.4,0-0.7-0.1&#10;&#9;&#9;&#9;&#9;&#9;c0.1,2.2,0.2,4.4,0.4,6.6c0.1,0,0.1,0,0.2,0c0.5-0.1,1.1-0.1,1.6-0.2c1-0.2,1.9-0.4,2.8-0.8c0.6-0.3,1.2-0.6,1.7-1.1&#10;&#9;&#9;&#9;&#9;&#9;c0.6-0.6,0.6-1.3,0.2-2C103.7,193.1,103.4,192.8,102.9,192.5z" id="el_nyFnWpx_KK"/>
			</g>
			<g id="el_k623FOKmju">
				<path d="M118.7,192c0.7-0.2,1.1-0.7,1.1-1.4l0-1c0-1.1-0.7-1.7-1.9-1.7l-7.1,0l0,8.4l6.6,0c1.7,0,2.5-0.6,2.5-1.7&#10;&#9;&#9;&#9;&#9;&#9;l0-1C119.8,192.8,119.4,192.2,118.7,192z M112.7,192.8l4.3,0c0.4,0,0.5,0.1,0.6,0.1c0.1,0.1,0.2,0.3,0.2,0.5l0,0.6&#10;&#9;&#9;&#9;&#9;&#9;c0,0.3-0.1,0.5-0.2,0.5c-0.1,0.1-0.3,0.1-0.6,0.1l-4.3,0L112.7,192.8z M117.8,190.8c0,0.1,0,0.5-0.8,0.5l-4.3,0l0-1.8l4.3,0&#10;&#9;&#9;&#9;&#9;&#9;c0.8,0,0.8,0.4,0.8,0.5L117.8,190.8z" id="el_FdgAq1foV_"/>
				<path d="M127.5,187.9l-1.9,0l-4.7,8.4l2.1,0l0.9-1.8l5.1,0l1,1.8l2.3,0L127.5,187.9L127.5,187.9z M128.1,192.9&#10;&#9;&#9;&#9;&#9;&#9;l-3.3,0l1.7-3.1L128.1,192.9z" id="el_9yFvGFld8y"/>
				<path d="M141.6,192.3c0,0.2,0,0.6,0.1,1.2c-0.2-0.2-0.5-0.4-0.8-0.7l-5.8-4.8l0,0l-1.4,0l0,8.4l1.9,0l0-4.5&#10;&#9;&#9;&#9;&#9;&#9;c0-0.3,0-0.6-0.1-1.1c0.2,0.2,0.3,0.3,0.5,0.5l6,5l0,0l1.4,0l0-8.4l-1.9,0L141.6,192.3z" id="el_EqKQY94c06"/>
				<path d="M154,187.8l-6,0c-0.8,0-1.4,0.1-1.7,0.4c-0.3,0.3-0.5,0.8-0.4,1.6l0,4.3c0,0.8,0.2,1.3,0.5,1.6&#10;&#9;&#9;&#9;&#9;&#9;c0.3,0.3,0.9,0.4,1.7,0.4l6,0c0.8,0,1.4-0.1,1.7-0.4c0.3-0.3,0.5-0.8,0.5-1.6l0-4.3c0-0.8-0.2-1.3-0.5-1.6&#10;&#9;&#9;&#9;&#9;&#9;C155.4,188,154.8,187.8,154,187.8z M154.1,189.5l0,5l-6.1,0l0-5L154.1,189.5z" id="el_RHoAMXOZ3rq"/>
				<path d="M165.7,193.1c1.3,0,1.9-0.6,1.9-1.7l0-1.9c0-1.1-0.7-1.7-1.9-1.7l-7.1,0l0,8.4l2,0l0-3.1l1.7,0l3.3,3.1l0,0&#10;&#9;&#9;&#9;&#9;&#9;l3,0l-3.8-3.1L165.7,193.1z M160.6,189.4l4.2,0c0.3,0,0.5,0,0.6,0.1c0.1,0.1,0.2,0.2,0.2,0.5l0,1c0,0.2-0.1,0.4-0.2,0.5&#10;&#9;&#9;&#9;&#9;&#9;c-0.1,0-0.2,0.1-0.6,0.1l-4.2,0L160.6,189.4z" id="el_tm2cEqwnRn5"/>
				<polygon points="169.2,189.4 173,189.4 173,196.1 175.1,196.1 175.1,189.4 178.9,189.4 178.8,187.7 169.2,187.8 &#10;&#9;&#9;&#9;&#9;&#9;&#9;&#9;&#9;&#9;" id="el_MXxHOeVsoOd"/>
				<polygon points="182.6,194.4 182.6,192.5 186.5,192.5 186.5,190.9 182.6,191 182.6,189.3 188.9,189.3 188.9,187.7 &#10;&#9;&#9;&#9;&#9;&#9;180.5,187.7 180.5,196.1 189,196.1 189,194.4 &#9;&#9;&#9;&#9;" id="el_W6X_WZQEu3t"/>
			</g>
		</g>
	</g>
	<g id="el_wiL6rGbJ8eG_VF5KIrPQF" data-animator-group="true" data-animator-type="2"><path d="M399.9,287.7l-307,1.1c-2.5,0-4.5-2-4.5-4.5l0-7c0-2.5,2-4.5,4.5-4.5l307-1.1c2.5,0,4.5,2,4.5,4.5l0,7&#10;&#9;&#9;C404.3,285.7,402.3,287.7,399.9,287.7z" id="el_wiL6rGbJ8eG"/></g>
	<g id="el_b4jASLw4Tfb_HDJyV3tgD" data-animator-group="true" data-animator-type="2"><path d="M203.2,312.8l-108.2,0.4c-2.6,0-4.7-2.1-4.7-4.6l0-6.2c0-2.6,2.1-4.7,4.6-4.7l108.2-0.4c2.6,0,4.7,2.1,4.7,4.6&#10;&#9;&#9;l0,6.2C207.8,310.7,205.7,312.8,203.2,312.8z" id="el_b4jASLw4Tfb"/></g>
	<g id="el_8dHR4-GyMMZ_tkJG17h9j" data-animator-group="true" data-animator-type="2"><path d="M119.8,257.6l-26,0.1c-2.6,0-4.7-2.1-4.7-4.6l-0.1-17.5c0-2.6,2.1-4.7,4.6-4.7l26-0.1c2.6,0,4.7,2.1,4.7,4.6&#10;&#9;&#9;l0.1,17.5C124.4,255.5,122.3,257.6,119.8,257.6z" id="el_8dHR4-GyMMZ"/></g>
</g></g>
<script>(function(){var a=document.querySelector('#el_7-ISw42i-'),b=a.querySelectorAll('style'),c=function(d){b.forEach(function(f){var g=f.textContent;g&amp;&amp;(f.textContent=g.replace(/transform-box:[^;\r\n]*/gi,'transform-box: '+d))})};c('initial'),window.requestAnimationFrame(function(){return c('fill-box')})})();</script></svg>