<?xml version="1.0" encoding="utf-8"?>
<!-- Generator: Adobe Illustrator 21.1.0, SVG Export Plug-In . SVG Version: 6.00 Build 0)  -->
<svg version="1.1" id="Capa_1" xmlns="http://www.w3.org/2000/svg" xmlns:xlink="http://www.w3.org/1999/xlink" x="0px" y="0px"
	 viewBox="0 0 95 102" style="enable-background:new 0 0 95 102;" xml:space="preserve">
<style type="text/css">
	.st0{clip-path:url(#SVGID_2_);fill:#FFFFFF;}
	.st1{clip-path:url(#SVGID_2_);fill:#B31627;}
	.st2{clip-path:url(#SVGID_2_);fill:#457A48;}
	.st3{clip-path:url(#SVGID_2_);fill:#4981C0;}
	.st4{clip-path:url(#SVGID_2_);fill:#DDB32A;}
	.st5{clip-path:url(#SVGID_2_);fill:#786629;}
	.st6{clip-path:url(#SVGID_2_);fill:#AE7A25;}
	.st7{clip-path:url(#SVGID_2_);fill:#6D8539;}
	.st8{clip-path:url(#SVGID_2_);fill:#916823;}
	.st9{clip-path:url(#SVGID_2_);fill:#D9AB80;}
</style>
<g>
	<defs>
		<path id="SVGID_1_" d="M0.1,51c0,26.2,21.2,47.4,47.4,47.4c26.2,0,47.4-21.2,47.4-47.4c0-26.2-21.2-47.4-47.4-47.4
			C21.3,3.6,0.1,24.8,0.1,51"/>
	</defs>
	<clipPath id="SVGID_2_">
		<use xlink:href="#SVGID_1_"  style="overflow:visible;"/>
	</clipPath>
	<rect x="-20.7" y="0.5" class="st0" width="138.4" height="99.6"/>
	<rect x="71.5" y="7.5" class="st1" width="46.1" height="85.6"/>
	<rect x="-20.7" y="7.5" class="st2" width="46.1" height="85.6"/>
	<path class="st3" d="M45.9,58.1c-1.5,0.4-2.1-0.8-2.4-1.6c-0.2,0.8-0.2,1.2-0.7,1c-0.6-0.2-2.4-1-2.9-1.2c-0.4-0.2-0.5,0.2,0.2,0.6
		c0.7,0.4,1.4,0.8,1.4,1.1c0,0.3-0.6,0.6-0.9,0.7c1.1,0,2.3,0.2,2.7,0.3c0.7,0.2,0.8,0.7-0.4,1.4c3-0.3,2.9,1.1,4.4,1.1
		c1.1,0,2.4,0,2.9,0c1.4-0.1,0.4-0.6,1.7-0.9c0.9-0.2,1.9-0.6,2.6-0.8c-0.8-0.2-1.2-0.3-1.2-0.5c0-0.2,1.5-0.7,2.2-1
		c-0.2-0.1-0.9-0.2-1.6,0c-0.7,0.2-2,0.4-3.6,0.2C48.8,58.4,47.1,58.7,45.9,58.1"/>
	<path class="st4" d="M51.1,60.9c0.2,0.3,0.6,0.2,0.8,0c0.2-0.3,0.1-0.6-0.1-0.7c0.1-0.4,0.2-1.3,0-1.7c0.2-0.1,0.3-0.4,0.1-0.7
		c-0.2-0.3-0.6-0.3-0.8,0c-1.3-0.2-4-0.2-4.9,0c-0.2-0.3-0.6-0.2-0.8,0c-0.2,0.3-0.1,0.6,0.2,0.7c-0.2,0.4-0.2,1.3,0,1.7
		c-0.2,0.1-0.3,0.5-0.2,0.7c0.2,0.3,0.6,0.3,0.8,0C47.2,61.3,50,61.3,51.1,60.9"/>
	<path class="st0" d="M40.8,58.2c-0.7,0-0.7,1,0,1C41.4,59.2,41.4,58.2,40.8,58.2"/>
	<path class="st0" d="M43.4,56.1c-0.7,0-0.7,1,0,1C44.1,57.1,44.1,56.1,43.4,56.1"/>
	<path class="st0" d="M54.3,59.5c-0.7,0-0.7,1,0,1C55,60.5,55,59.5,54.3,59.5"/>
	<path class="st5" d="M39.9,56c-0.4-0.2-0.9-0.1-1,0.1c-0.2,0.2,0.2,0.7,0.6,0.9c0.4,0.2,0.8,0,0.9-0.1C40.4,56.7,40.3,56.2,39.9,56
		"/>
	<path class="st5" d="M42.8,60c-0.4,0.1-0.7,0.5-0.7,0.8c0,0.3,0.6,0.3,1,0.2c0.4-0.1,0.5-0.5,0.5-0.7C43.6,59.9,43.3,59.8,42.8,60"
		/>
	<path class="st5" d="M55.4,58.9c0.4-0.1,0.9-0.6,0.8-0.8c-0.1-0.3-0.7-0.2-1.1-0.1c-0.4,0.1-0.6,0.5-0.6,0.7
		C54.7,58.9,54.9,59.1,55.4,58.9"/>
	<path class="st6" d="M56.6,61.6c0-0.2-0.1-0.8-0.3-1c0.2,0,0.3-0.4,0.1-0.5c-0.2-0.1-0.4,0-0.5,0c-0.1,0.1-0.1,0.4,0.2,0.5
		c0,0.2,0.2,0.9,0.1,1.2c0.3,0,0.9,0.2,1.1,0.3c-0.1,0.2,0.2,0.4,0.3,0.4c0.1,0,0.3-0.2,0.3-0.4c0-0.3-0.4-0.4-0.5-0.2
		C57.3,61.8,56.8,61.7,56.6,61.6"/>
	<path class="st6" d="M61.3,57.8c0-0.2-0.4-0.7-0.6-0.8c0.2-0.1,0.2-0.5-0.1-0.6c-0.2-0.1-0.4,0.1-0.4,0.2c0,0.1,0.1,0.4,0.3,0.4
		c0.1,0.2,0.5,0.8,0.4,1.1c0.3-0.1,0.9-0.1,1.1,0c0,0.2,0.3,0.3,0.4,0.3c0.1-0.1,0.3-0.2,0.2-0.4c-0.1-0.3-0.4-0.2-0.5,0
		C62,57.8,61.5,57.8,61.3,57.8"/>
	<path class="st6" d="M63.9,52.6c-0.1-0.2-0.5-0.5-0.7-0.6c0.1-0.2,0-0.5-0.3-0.5c-0.2,0-0.3,0.2-0.3,0.4c0,0.1,0.3,0.4,0.5,0.2
		c0.2,0.1,0.6,0.6,0.7,0.9c0.2-0.2,0.9-0.4,1.1-0.4c0.1,0.2,0.4,0.2,0.5,0.1c0.1-0.1,0.1-0.3-0.1-0.5c-0.2-0.2-0.5,0-0.5,0.3
		C64.6,52.5,64.1,52.6,63.9,52.6"/>
	<path class="st2" d="M63.6,53.2c0.2-0.8,0.2-1.5-0.3-2.1c-0.5-0.7,0-1.7-0.2-2.1c0.3,0.3,1,1.1,1.1,1.5c0.3-0.5,0.9-1.5,1.4-1.6
		c0,0.3,0,0.7,0.1,1c0.1,0.5-0.5,1.3-1,1.7c-0.3,0.3-0.8,0.5-1,1.8"/>
	<path class="st2" d="M63.7,53.2c0.3-1.9-0.3-4.2,0.7-4.9c0.7,1.1,0.7,2.4,0.3,2.9C64.3,51.7,63.8,52.5,63.7,53.2"/>
	<path class="st2" d="M60.4,58.5c0.6-0.5,1.1-0.9,1-1.9c-0.2-1.4,0.2-2.9,1.4-3.2c0.1,0.4,0.1,1.4,0.1,1.8c0.5-0.5,0.9-1.1,1.9-1.2
		c-0.8,0.8-1.1,2.6-2,3c-1,0.4-1.8,1.2-2.2,1.8"/>
	<path class="st2" d="M60.8,58.3c0.4-0.5,0.7-0.8,0.9-1.9c0.2-1.3,1-3,2.1-3.5c0.2,0.9-0.2,2.3-0.9,3.2C62.1,57,61.1,57.9,60.8,58.3
		"/>
	<path class="st2" d="M56,61.8c0.9-0.5,1.1-0.9,1.3-1.5c0.5-1.5,2-2,2-2.7c0.2,0.7,0.1,1.6-0.2,2c0.4-0.3,1.2-0.7,1.8-0.7
		c-0.3,0.7,0,1.5-1.3,1.9c-1.3,0.4-1.8-0.2-3.7,1.1"/>
	<path class="st2" d="M56.1,61.9c0.8-0.6,1.7-1.6,2.3-2.2C58.9,59,60,58,61.1,58c-0.5,1.3-1.6,2.4-3,2.9
		C56.6,61.4,56.6,61.6,56.1,61.9"/>
	<path class="st2" d="M51.1,62.9c1.3-0.2,1.5-2.1,4.1-1.7c-0.4,0.3-0.7,1.2-1.2,1.5c0.6,0.1,1.5,0.3,2.1,0.7
		c-0.7-0.1-2.3,1.2-3.6,0.5C51.2,63.2,51.4,63.1,51.1,62.9"/>
	<path class="st2" d="M51.7,63.5c1,0.6,3.8-0.2,4.7-1.8c-1.2-0.1-2.5,0.4-3.3,0.8c-0.8,0.4-1.4,0.4-2,0.3c-1.6-0.3-3.4-0.3-5.3,1
		c-0.1,0.1,0.2,0.4,0.4,0.3C47.7,62.8,49.9,62.3,51.7,63.5"/>
	<path class="st6" d="M40.7,61.7c0-0.4-0.1-0.7-0.2-1c-0.1-0.2-0.2-0.8,0.1-0.8c0.2,0,0.4,0.4,0.3,0.7c-0.1,0.3,0,1,0.2,1.3"/>
	<path class="st6" d="M40.5,60.5c-0.3-0.1-0.4,0-0.3,0.3c0.2,0.3,0.6,0.3,0.7,0.1c0.2-0.3,0.1-0.5-0.1-0.4
		C40.7,60.6,40.6,60.6,40.5,60.5"/>
	<path class="st6" d="M40.6,61.8c-0.4,0.1-0.7,0.1-1,0.1c-0.3,0-0.8,0-0.7,0.3c0,0.2,0.5,0.3,0.7,0.1c0.3-0.2,1-0.3,1.3-0.1"/>
	<path class="st6" d="M39.5,61.9c-0.2-0.3-0.1-0.4,0.2-0.3c0.3,0.1,0.5,0.4,0.3,0.6c-0.3,0.3-0.5,0.2-0.4,0.1
		C39.5,62.2,39.5,62,39.5,61.9"/>
	<path class="st6" d="M36,57.7c0.1-0.4,0.1-0.8,0.1-1c-0.1-0.3,0-0.8,0.2-0.7c0.2,0,0.3,0.4,0.1,0.7c-0.2,0.3-0.2,1-0.1,1.3"/>
	<path class="st6" d="M36.2,56.6c-0.3-0.2-0.4-0.1-0.3,0.2c0.1,0.3,0.5,0.5,0.7,0.3c0.3-0.3,0.2-0.5,0-0.4
		C36.4,56.6,36.2,56.6,36.2,56.6"/>
	<path class="st6" d="M36,57.8c-0.4,0-0.8,0-1-0.1c-0.2-0.1-0.8-0.1-0.8,0.1c0,0.2,0.4,0.4,0.7,0.2c0.3-0.1,1.2-0.1,1.5,0.1"/>
	<path class="st6" d="M34.9,57.8c-0.1-0.3,0-0.4,0.3-0.3c0.3,0.1,0.4,0.5,0.2,0.7c-0.3,0.2-0.5,0.1-0.5,0
		C34.9,58,34.9,57.8,34.9,57.8"/>
	<path class="st6" d="M33.2,52.7c0.2-0.4,0.5-0.7,0.5-1c0-0.3,0.3-0.7,0.5-0.6c0.2,0.1,0.1,0.5-0.2,0.7c-0.3,0.2-0.6,0.8-0.7,1.4"/>
	<path class="st6" d="M33.8,51.7c-0.2-0.3-0.3-0.2-0.4,0.1c-0.1,0.3,0.2,0.6,0.5,0.5c0.4-0.1,0.4-0.4,0.2-0.4
		C34,51.8,33.9,51.7,33.8,51.7"/>
	<path class="st6" d="M33,52.7c-0.4-0.2-0.7-0.4-0.9-0.6c-0.2-0.2-0.6-0.5-0.7-0.3c-0.1,0.2,0.2,0.5,0.5,0.6c0.3,0,1.1,0.5,1.2,0.8"
		/>
	<path class="st6" d="M32,52.1c0-0.3,0.2-0.3,0.4-0.1c0.2,0.3,0.1,0.7-0.2,0.7c-0.4,0-0.5-0.1-0.4-0.2C31.9,52.3,32,52.2,32,52.1"/>
	<path class="st2" d="M33.4,53.8c-0.1-0.6-0.6-2.1-0.3-2.4c0.2-0.3,0.2-0.3,0.1-0.5c-0.2-0.1,0-0.4,0.3-0.5c0.4-0.1,0.6-0.5,0.3-0.5
		c-0.5,0-0.8-0.1-0.5-0.2c0.4-0.2,0.7-0.5,0.7-0.7c0-0.1-0.2-0.2-0.4-0.1c-0.2,0.1-0.4,0-0.1-0.2c0.3-0.2,0.1-0.4,0.3-0.5
		c0.2-0.1,0.1-0.3,0-0.3c-0.1,0-0.4,0.3-0.5,0.2c-0.1-0.1-0.3-0.3-0.4,0c-0.2,0.4,0,0.7-0.1,0.9c-0.1,0.2-0.3,0.3-0.5,0.1
		c-0.2-0.2-0.4-0.1-0.4,0.1c0,0.3,0.1,0.4,0.3,0.7c0.2,0.2,0.1,0.4-0.2,0.3c-0.3-0.1-0.5-0.1-0.5,0.1c0,0.2,0.1,0.3,0.5,0.5
		c0.4,0.2,0.5,0.2,0.5,0.4c0.1,0.4,0.4,0.3,0.5,0.8c0.1,0.5,0.4,1.2,0.4,1.9"/>
	<path class="st2" d="M37,58.2c-1.1-0.6-1.5-1.1-1.6-1.7c0-0.5,0-0.8,0.2-1c0.2-0.2,0.1-0.4-0.2-0.3c-0.2,0.2-0.5,0.1-0.4-0.2
		c0.1-0.3,0.2-0.8,0.1-1.1c-0.1-0.3-0.4-0.3-0.5,0.1c0,0.1-0.1,0.3-0.3,0.3c-0.2,0-0.1-0.4-0.1-0.6c0.1-0.2-0.2-0.4-0.3-0.2
		c-0.1,0.2-0.4,0.4-0.5,0.1c-0.1-0.3-0.4-0.1-0.3,0.1c-0.3-0.1-0.3,0.1-0.2,0.3c0.1,0.2,0.2,0.3,0,0.3c-0.2,0-0.5-0.2-0.5,0.1
		c0.1,0.3,0.7,0.5,1,0.5c0.4,0.1,0.4,0.2,0.2,0.3c-0.2,0.1-0.3,0-0.5,0c-0.3,0-0.3,0.2-0.1,0.4c0.2,0.2,0.7,0.3,1,0.3
		c0.4,0,0.4,0.3,0.3,0.3c-0.2,0-0.5-0.1-0.5,0.1c0,0.2,0.4,0.4,0.8,0.3c0.4,0,0.4,0.1,0.5,0.1c0.5,0.6,1.4,1.4,1.9,1.6"/>
	<path class="st2" d="M41.5,62c-1.1-0.3-1.7-1.3-1.8-1.8c0-0.5-0.2-0.4-0.2-0.3c-0.1,0.1-0.3,0.3-0.4-0.1c-0.1-0.5,0-0.9-0.2-1.2
		c-0.2-0.2-0.4-0.3-0.5,0.1c-0.1,0.4-0.3,0.2-0.3-0.2c0-0.4,0-0.7-0.1-0.9c-0.2-0.2-0.3-0.1-0.3,0.2c0,0.3-0.1,0.4-0.3,0.1
		c-0.2-0.3-0.4-0.5-0.4-0.1c0,0.3,0.2,0.6-0.1,0.6c-0.3,0-0.5,0-0.3,0.3c0.2,0.2,0.4,0.3,0.6,0.3c0.2,0,0.2,0.2,0,0.3
		c-0.2,0.1-0.3,0-0.5,0c-0.2-0.1-0.4,0-0.2,0.3c0.2,0.3,0.6,0.4,1.1,0.4c0.4,0,0.6,0.2,0.3,0.3c-0.3,0.1-0.5,0.2-0.8,0.1
		c-0.3,0-0.4,0.2,0.1,0.4c0.4,0.2,0.8,0.2,1.2,0.1c0.4-0.1,0.4,0,0.3,0.1c0,0.1,0,0.3,0.3,0.2c0.3-0.1,0.7-0.2,1.1,0.1
		c0.4,0.3,0.8,0.7,1.3,0.9"/>
	<path class="st2" d="M51.3,63.9c-1.6-1.2-3.5-1.8-5.1-1.3c-0.4,0.1-0.6,0.2-0.8-0.1c-0.2-0.4-0.3-0.2-0.4-0.1
		c-0.1,0.1-0.3,0.1-0.6-0.3c-0.2-0.4-0.4-0.5-0.7-0.5c-0.3,0-0.4,0.2-0.2,0.4c0.1,0.2,0,0.4-0.2,0.2c-0.2-0.2-0.6-0.6-0.8-0.5
		c-0.3,0-0.5,0-0.3,0.3c0.2,0.2,0.2,0.5-0.1,0.3c-0.3-0.2-0.5-0.3-0.8-0.3c-0.4,0.1-0.1,0.4-0.5,0.5c-0.2,0.1-0.5,0.2-0.6,0.3
		c-0.1,0.1-0.1,0.5,0.7,0.3c0.8-0.1,0.8-0.1,0.8,0.2c-0.1,0.2-0.1,0.5,0.4,0.4c0.6-0.1,0.9-0.6,1.1-0.4c0.1,0.1,0,0.3-0.1,0.4
		c-0.2,0.2,0.3,0.4,0.5,0.2c0.3-0.2,0.6-0.5,0.8-0.5c0.2,0.1,0,0.3-0.1,0.4c-0.1,0.1,0,0.4,0.3,0.3c0.3-0.2,0.5-1.1,1.5-1
		c0.3-0.5,2.6-0.8,4.5,0.8c0.1,0.1,0.3,0.1,0.5,0.1C51.2,64,51.5,64,51.3,63.9"/>
	<path class="st3" d="M48.8,64c0.4,0.3,0.9,0.6,1.1,1c-0.1,0.1-0.2,0.2-0.3,0.3c-0.3-0.3-0.7-0.6-1.1-0.9
		C48.6,64.3,48.8,64.1,48.8,64"/>
	<path class="st3" d="M47.7,63.4c-0.5,0.4-1.4,0.6-1.6,1.5c0.2-0.1,0.4-0.1,0.6-0.1c0.1-0.4,1-0.9,1.4-1.3
		C48,63.5,47.8,63.5,47.7,63.4"/>
	<path class="st3" d="M48.1,63.5c-0.4-0.1-0.6-0.2-0.6-0.7c0-0.6,0.1-0.7,0.6-0.7c0.2,0,0.2,0.3,0.2,0.7
		C48.3,63.1,48.3,63.6,48.1,63.5"/>
	<path class="st1" d="M49.3,63.4c0.4,0.4,1.4,0.6,1.6,1.5c-0.2-0.1-0.4-0.1-0.6-0.1c-0.1-0.4-0.9-0.8-1.3-1.2c0,0,0-0.1,0-0.1
		C49.1,63.5,49.2,63.5,49.3,63.4"/>
	<path class="st1" d="M49.1,63.5c-0.2,0.8-1.2,1.2-1.6,1.8c-0.1-0.1-0.2-0.3-0.3-0.3c0.2-0.5,1.2-0.9,1.5-1.4
		C48.8,63.5,49,63.5,49.1,63.5"/>
	<path class="st1" d="M48.8,63.5c0.5,0,0.7-0.1,0.7-0.7c0-0.6-0.1-0.7-0.7-0.7c0.2,0,0.2,0.4,0.2,0.7C48.9,63.1,49,63.6,48.8,63.5"
		/>
	<path class="st0" d="M48.7,63.5c-0.3,0.5-1.3,0.9-1.5,1.4c-0.1-0.1-0.3-0.1-0.4-0.2c0.1-0.4,1-0.9,1.4-1.3
		C48.2,63.6,48.6,63.6,48.7,63.5"/>
	<path class="st0" d="M48.8,64c0.4,0.3,0.9,0.6,1.1,1c0.1-0.1,0.3-0.1,0.4-0.2c-0.1-0.4-0.9-0.8-1.3-1.2C49,63.7,48.9,63.9,48.8,64"
		/>
	<path class="st0" d="M48.8,63.5c0.2,0,0.2-0.4,0.2-0.8c0-0.3,0-0.7-0.2-0.7c-0.1,0-0.2,0-0.3,0c-0.2,0-0.3,0-0.4,0
		c0.2,0,0.2,0.3,0.2,0.7c0,0.3,0.1,0.8-0.2,0.7c0.1,0,0.3,0,0.4,0C48.6,63.5,48.7,63.5,48.8,63.5"/>
	<path class="st1" d="M37.8,51.1c-0.3,0.3-0.8,0-1.1-0.2c-0.2-0.2-0.5-0.6,0-1.1c0.4-0.3,0.8-0.1,1.1,0.3
		C38.1,50.5,38.1,50.9,37.8,51.1"/>
	<path class="st1" d="M36.2,50c-0.3-0.2-0.3-0.4-0.1-0.5c0.2-0.2,0.3-0.1,0.5,0.1c0.2,0.3,0.3,0.5,0.1,0.6
		C36.6,50.2,36.4,50.2,36.2,50"/>
	<path class="st1" d="M36.1,50.3c-0.3-0.1-0.3-0.2-0.2-0.4c0.1-0.2,0.2-0.1,0.4-0.1c0.3,0.1,0.3,0.2,0.3,0.3
		C36.5,50.3,36.4,50.4,36.1,50.3"/>
	<path class="st1" d="M37,49.3c0-0.4,0.1-0.5,0.3-0.4c0.2,0,0.3,0.2,0.3,0.4c-0.1,0.3-0.1,0.5-0.3,0.5C37.1,49.8,37,49.6,37,49.3"/>
	<polygon class="st1" points="36.3,48.4 36.7,49.1 36.5,49.2 36.1,48.4 	"/>
	<path class="st1" d="M36.1,47.9c-0.4,0-0.4,0.6,0,0.6C36.5,48.5,36.5,47.9,36.1,47.9"/>
	<path class="st1" d="M36.5,49.7c-0.2-0.3-0.2-0.5,0-0.6c0.2-0.1,0.4-0.1,0.5,0.2c0.2,0.4,0.1,0.6,0,0.7C36.9,50,36.7,50,36.5,49.7"
		/>
	<path class="st2" d="M40.1,54.3c-1.7-0.1-3-1-3.1-2c-0.1-1.1,0.9-1.7,1.8-1.3c1.5,0.7,1.2,2.3,2.1,2.4L40.1,54.3z"/>
	<path class="st2" d="M44.5,54.6c-0.8-0.8-2.5-2.2-3.7-1.5c-1.1,0.7-0.8,1.6-0.5,2c0.5,0.5,2.5,0.9,4,0.4L44.5,54.6z"/>
	<path class="st2" d="M50.1,55c-2.3-0.9-3.9-1.8-5.2-1c-1.3,0.8-0.8,1.9-0.1,2.4c0.8,0.5,3.1,0.3,4.1,0C50,56.2,50.2,55.7,50.1,55"
		/>
	<path class="st2" d="M53.6,56.1c1.3,0.1,1.2-0.3,1.5-0.8c0.4-0.5,1.3-1.1,2.1-0.5c0.8,0.7,1,1.5,0,2.1c-1,0.5-1.7,0.7-2.7,0.4
		c-1-0.3-1.6-0.5-1.8-0.5C53.3,56.6,53.5,56.4,53.6,56.1"/>
	<path class="st2" d="M50.3,58.8c0.1-2.4,3.7-1,3.4-3.3c-0.1-1.1-2-0.9-3.5-0.6c-1.5,0.4-1.6,2-1.7,3.9c0,0.1,0.3,0.1,0.9,0.1
		C50,59,50.3,59,50.3,58.8"/>
	<path class="st1" d="M57.7,54.7c-0.5,0.3-0.6,0.6-0.5,0.9c0.1,0.3,0.7,0.2,1.1,0c0.4-0.2,0.6-0.6,0.4-0.9
		C58.5,54.4,58,54.5,57.7,54.7"/>
	<polygon class="st1" points="59.8,53.8 59.2,54.3 59.1,54.2 59.6,53.6 	"/>
	<path class="st1" d="M60.1,53.5c-0.1-0.3-0.6-0.2-0.5,0.1C59.7,54,60.2,53.9,60.1,53.5"/>
	<path class="st1" d="M58.2,54.1c0.2-0.3,0.3-0.4,0.5-0.3c0.2,0.1,0.2,0.3,0,0.5c-0.2,0.3-0.3,0.4-0.5,0.3
		C58.1,54.5,58.1,54.4,58.2,54.1"/>
	<path class="st1" d="M59,54.7c0.4-0.1,0.5,0,0.5,0.2c0,0.2-0.1,0.3-0.4,0.3c-0.4,0-0.5,0-0.5-0.2C58.6,54.9,58.6,54.7,59,54.7"/>
	<path class="st1" d="M58.7,54.3c0.3-0.3,0.4-0.3,0.6,0c0.1,0.2,0.1,0.4-0.2,0.5c-0.3,0.1-0.5,0.2-0.6,0.1
		C58.4,54.7,58.4,54.5,58.7,54.3"/>
	<path class="st7" d="M38,51.8c-0.3,0.2-0.2,0.5,0.2,0.3C38.4,51.9,38.3,51.6,38,51.8"/>
	<path class="st7" d="M38.9,51.7c-0.3,0.1-0.3,0.4,0.1,0.3C39.3,51.9,39.2,51.6,38.9,51.7"/>
	<path class="st7" d="M37.7,52.6c0,0.3,0.3,0.4,0.3,0C38.1,52.3,37.7,52.2,37.7,52.6"/>
	<path class="st7" d="M38.5,52.6c-0.2,0.3,0,0.4,0.2,0.2C38.9,52.5,38.7,52.3,38.5,52.6"/>
	<path class="st7" d="M39.6,52.4c-0.4,0.1-0.3,0.4,0.1,0.3C40,52.6,39.9,52.3,39.6,52.4"/>
	<path class="st7" d="M39.4,53.4c-0.2,0.3,0,0.5,0.2,0.2C39.8,53.3,39.7,53.1,39.4,53.4"/>
	<path class="st7" d="M38.6,53.4c-0.2,0.3,0.1,0.5,0.3,0.2C39,53.2,38.7,53.1,38.6,53.4"/>
	<path class="st7" d="M40.8,54c-0.2,0.3,0.1,0.5,0.3,0.2C41.3,53.9,41,53.7,40.8,54"/>
	<path class="st7" d="M41.5,53.5c-0.2,0.3,0,0.5,0.3,0.2C42,53.4,41.7,53.2,41.5,53.5"/>
	<path class="st7" d="M41.1,54.8c0,0.4,0.3,0.4,0.3,0C41.4,54.5,41.1,54.5,41.1,54.8"/>
	<path class="st7" d="M41.9,54.5c-0.1,0.3,0.2,0.5,0.3,0.1C42.4,54.3,42.1,54.2,41.9,54.5"/>
	<path class="st7" d="M43.2,54.8c-0.1,0.3,0.2,0.5,0.3,0.1C43.6,54.5,43.3,54.4,43.2,54.8"/>
	<path class="st7" d="M42.5,55.3c0,0.4,0.3,0.4,0.3,0C42.8,54.9,42.5,54.9,42.5,55.3"/>
	<path class="st7" d="M45.1,54.9c-0.2,0.3,0.1,0.5,0.3,0.2C45.6,54.8,45.3,54.6,45.1,54.9"/>
	<path class="st7" d="M45.5,55.9c0.1,0.3,0.4,0.3,0.3-0.1C45.7,55.5,45.4,55.6,45.5,55.9"/>
	<path class="st7" d="M45.9,54.2c-0.2,0.3,0.1,0.5,0.3,0.2C46.4,54.1,46.1,53.9,45.9,54.2"/>
	<path class="st7" d="M46.5,55.1c-0.2,0.3,0,0.5,0.2,0.2C47,55.1,46.8,54.8,46.5,55.1"/>
	<path class="st7" d="M47.4,54.4c-0.2,0.3,0,0.5,0.3,0.2C47.8,54.4,47.6,54.2,47.4,54.4"/>
	<path class="st7" d="M46.9,56.1c0.1,0.3,0.4,0.2,0.3-0.1C47.1,55.7,46.8,55.8,46.9,56.1"/>
	<path class="st7" d="M47.7,55.4c-0.1,0.3,0.2,0.5,0.3,0.1C48.2,55.2,47.9,55.1,47.7,55.4"/>
	<path class="st7" d="M49.9,57.4c-0.3-0.2-0.5,0.2-0.2,0.3C50,57.9,50.2,57.6,49.9,57.4"/>
	<path class="st7" d="M49.3,56.4c-0.3-0.2-0.5,0.2-0.2,0.3C49.4,56.9,49.7,56.6,49.3,56.4"/>
	<path class="st7" d="M51.3,56.3c-0.3-0.2-0.6,0.2-0.3,0.4C51.3,56.8,51.6,56.4,51.3,56.3"/>
	<path class="st7" d="M51.6,55.2c-0.3-0.1-0.5,0.2-0.1,0.3C51.9,55.7,52,55.3,51.6,55.2"/>
	<path class="st7" d="M50.2,56.2c-0.3-0.1-0.4,0.2-0.1,0.4C50.4,56.7,50.5,56.3,50.2,56.2"/>
	<path class="st7" d="M52.3,56.5c-0.3-0.1-0.5,0.2-0.1,0.3C52.5,56.9,52.6,56.6,52.3,56.5"/>
	<path class="st7" d="M52.8,55.5c-0.3-0.1-0.5,0.2-0.1,0.4C53,56,53.2,55.7,52.8,55.5"/>
	<path class="st7" d="M54.3,56.5c-0.2-0.3-0.5,0-0.3,0.2C54.3,57,54.6,56.8,54.3,56.5"/>
	<path class="st7" d="M55.6,56.4c-0.3-0.2-0.5,0.2-0.2,0.3C55.7,56.9,55.9,56.6,55.6,56.4"/>
	<path class="st7" d="M56.5,56.6c-0.3-0.2-0.5,0.2-0.2,0.4C56.6,57.1,56.8,56.8,56.5,56.6"/>
	<path class="st7" d="M56,55.2c-0.3-0.2-0.5,0.2-0.2,0.4C56,55.8,56.3,55.4,56,55.2"/>
	<path class="st7" d="M56.7,55.6c-0.3-0.2-0.6,0.2-0.2,0.4C56.7,56.2,57,55.8,56.7,55.6"/>
	<path class="st1" d="M42.5,52.7c-0.5,0.3-0.6,1-0.4,1.4c0.3,0.4,0.7,0.3,1,0c0.3-0.3,0.2-1,0.1-1.3L42.5,52.7z"/>
	<path class="st1" d="M43.1,51.7c-0.4,0-0.4,0.6,0,0.6C43.4,52.3,43.4,51.7,43.1,51.7"/>
	<path class="st1" d="M42.7,51.9c-0.4,0-0.4,0.6,0,0.6C43.1,52.5,43.1,51.9,42.7,51.9"/>
	<path class="st1" d="M43.3,52c-0.4,0-0.4,0.6,0,0.6C43.6,52.6,43.7,52,43.3,52"/>
	<path class="st1" d="M43,52.9c0.2,0.3,0.7,0.1,0.7-0.4c-0.1,0.1-0.5,0.1-0.7,0L43,52.9z"/>
	<path class="st1" d="M42.8,52.5c-0.2,0-0.4-0.1-0.5-0.4c-0.3,0.3,0,0.9,0.5,0.7V52.5z"/>
	<path class="st1" d="M42.8,53c-0.2-0.1-0.2-0.4-0.2-0.5c0.1-0.3,0.7-0.1,0.6,0.2C43.2,52.9,43,53,42.8,53"/>
	<path class="st8" d="M42.1,40c-0.3-0.2-0.2-0.5,0.3-0.9c0.4-0.3,0.8-0.8,0.8-1.1c0-0.4,0.1-0.4,0.2,0c0.1,0.3,0.1,0.5,0,0.7
		c0.2-0.3,0.3-1,0.3-1.2c0-0.3,0.2-0.5,0.2-0.1c0.1,0.4,0.1,0.6,0.1,0.8c0.1-0.1,0.3-0.1,0.4-0.2c0.1-0.3,0.1-0.5,0.1-0.7
		c0-0.4,0.1-0.6,0.2-0.3c0,0.2,0.1,0.5,0.1,0.7c0.2-0.1,0.3-0.3,0.4-0.5c0.1-0.3,0.2-0.6,0.3,0c0,0.1,0,0.2,0,0.4
		c0.7-0.4,1.7,0.4,2.2,0.3c0.5-0.1,0.5,0,0.3,0.1c-0.1,0.1-0.2,0.1-0.3,0.2c0.6,0.2,1,0.7,1.3,1.1c0.3-1.1-0.5-1.8-1.2-1.9
		c-0.7-0.1-1.5-0.2-1.1-1c0.2-0.4,0.5-0.8,1.3-0.8c0.1-0.4,0.6-0.6,1.7-0.5c1.4,0.1,2.7,0.4,3.9,1c1.2,0.7,1.9,1,2.6,0.7
		c0,0.2-0.2,0.4-0.3,0.6c2,1.3,3.6,3,4.1,4.7c0.3,1,0.5,1.9,1.4,2.1c-0.1,0.1-0.3,0.2-0.5,0.2c0.3,1.1,0.3,2.9,0,3.9
		c-0.3,1,0,2.7-0.3,3.8c-0.3,1.1-0.4,0.3-0.4-0.2c0-1.3-0.3-1.8-0.3-4.6c0-0.4-0.2-0.7-0.5-1.1c-0.1,1.8,0.6,2.9,0.1,5.4
		c-0.1,0.7-0.3,0.1-0.4-1c0-1.1-0.4-1.7-0.5-2.8c0-0.4-0.2-0.7-0.3-1c0,1.1,0.4,3.1,0.3,4.2c-0.1,0.8-0.3,0.1-0.3-0.2
		c0-1.1-0.5-1.8-0.6-2.8c0-0.3-0.2-0.7-0.6-1.2c0.2,0.8,0.3,1.8,0.3,2.2c0,0.5,0,0.7-0.2,0.4c-0.2-0.3-0.4-0.9-0.4-1.6
		c-0.1-0.7-0.6-1.1-1-1.5c0.3,0.5,0.6,1.4,0.7,1.9c0.1,0.5,0,0.6-0.1,0.4c-0.1-0.2-0.4-0.7-0.6-1.3c-0.2-0.5-0.6-1-1-1.2
		c-0.4-0.2-0.5-0.2-1-0.7c0.5,0.6,1,1.3,1.3,1.9c0.3,0.6,0.2,0.7-0.1,0.4c-0.3-0.2-0.4-0.4-0.6-0.8c-0.5-0.9-0.6-0.7-1-0.8
		c-0.3-0.1-0.7-0.2-1.1-0.8c-0.1,0.1-0.2,0.2-0.3,0.2c0.4,0.8,0.7,1.7,0.7,2.5c1.2,0.9,4,2.7,5.7,3.9c0.8,0.6,0.2,0.8-0.4,0.8
		c-0.4,0-0.7,0-0.8-0.1c-0.1,0.4-0.9,0.7-1.4,0.3c-0.2,0.3-0.8,0.5-1.2,0c-0.3,0.3-0.6,0.2-0.9,0c-0.2-0.2-0.4-0.3-1.1-1
		c0,0.9-0.2,0.4-0.4,0.1c0,0.9-0.3,0.8-0.4,0.4c-0.1,0.7-0.5,0.8-0.7,0.4c-0.1-0.1-0.2-0.3-0.3-0.5c-0.1,0.9-0.5,0.6-0.6,0.3
		c-0.1-0.3-0.4-0.6-0.7-1.1c-0.1,0.2-0.3-0.1-0.7-0.6c-0.1-0.1-0.2-0.3-0.3-0.4c-0.1,1.2-0.4,1.1-0.7,0.7c-0.3,0.2-0.9,0.4-1.5,0.5
		c-0.6,0.1-0.6-0.2-0.4-0.5c-0.8-0.1-1.4-0.3-1.5-0.5c0-0.3,1-0.8,1.5-1.2c-0.5-0.4-0.7-0.9-0.6-0.9c0.1-0.1,0.5,0,0.8,0.2
		c-0.5-0.6-1.1-1.6-0.9-1.9c-0.1-0.1-0.2-0.2-0.3-0.4c-0.2,0.1-0.5,0.2-0.4-0.2c0.1-0.4-0.4-1.2-0.5-1.8c0-0.6,0.4-0.9,0.6-1.5
		c-0.1,0-0.2-0.1-0.1-0.3c0.1-0.3,0.6-0.7,0.7-1.2c-0.2,0-0.3,0-0.1-0.2c0.2-0.2,0.3-0.5,0.3-0.8c-0.1,0.1-0.1,0-0.1-0.1
		c0-0.2-0.1-0.3-0.3-0.3C44.7,40.5,42.7,40.4,42.1,40"/>
	<path class="st9" d="M42,39.9c-0.2,0-0.5,0.2-0.3,0.4c-0.7,0.4-0.8,1.3-0.4,1.8c0.3,0.4,1,0.4,1.2,0.4c-0.4-0.1-0.6-1-0.4-1.2
		c0.2-0.2,0.6-0.7,1.5,0.3c0.3-0.3,0.6-0.5,0.9-0.5c0.4,0,0.7-0.3,0.5-0.6c-0.2-0.3-1.5,0.2-1.9-0.1C42.7,39.9,42.2,40.2,42,39.9"/>
	<path class="st4" d="M51.1,53.2c0.1,0.4-0.6,0.7-1,0.6c-0.4-0.1-0.9,0-0.9,0.5c0,0.3,0.2,0.5,0.5,0.6c-0.1,0.3,0.2,0.7,0.6,0.7
		c0.4,0,0.7-0.3,0.7-0.7c0.5,0.1,1.3-0.4,1.8-0.1c0.1,0.4,0.6,0.5,1.1,0.2c0.5-0.3,0.3-0.9-0.2-0.9c-0.8,0-1.4-0.5-1.9-1.2
		C51.7,53.6,51.4,53.8,51.1,53.2"/>
	<path class="st0" d="M49.7,56.1c-0.7-0.3-0.5-1,0-1.1c0.5-0.1,0.5,0.2,0.5,0.4C50.2,55.6,49.5,55.7,49.7,56.1"/>
	<path class="st0" d="M48.7,55.1c-0.5-0.4-0.1-1,0.4-1.1c0.5,0,0.5,0.5,0.3,0.6C49.1,54.8,48.5,54.5,48.7,55.1"/>
	<path class="st0" d="M53.9,55.9c0.7-0.1,0.7-0.6,0.6-0.9c-0.2-0.3-0.5-0.3-0.6-0.2c-0.1,0.1-0.2,0.4,0,0.5
		C54.1,55.4,54.1,55.6,53.9,55.9"/>
	<path class="st4" d="M45,50.2c0.3,0.1,1.3,0.4,2.2,0.7c-0.2,0.1-0.6,0.2-0.8,0.4c-0.5-0.1-1.5-0.3-2.1-0.4
		c-0.3,0.3-0.5,0.3-0.6,0.2c-0.1-0.1-0.4-0.2-0.7-0.4c-0.1,0.1-0.3,0.1-0.4,0.1c-0.2,0.2-0.3,0.2-0.4,0.2c-0.1,0.2-0.3,0.3-0.6,0.1
		c-0.3-0.2-0.4-0.6-0.4-0.9c0-0.2,0.1-0.3,0.3-0.3c0.1-0.3,0.3-0.5,0.5-0.4c0-0.3,0.4-0.5,0.7-0.5c0.5,0.1,1.6-0.2,1.9,0.1
		C44.9,49.3,45.4,49.8,45,50.2"/>
	<path class="st0" d="M42.6,50.8c0.1,0.2,0.5,0.5,0.9,0.2c-0.2-0.1-0.5-0.3-0.6-0.4C42.8,50.7,42.7,50.7,42.6,50.8"/>
	<path class="st0" d="M42.2,50.9c0.1,0.2,0.5,0.4,0.9,0.2c-0.2,0-0.4-0.1-0.5-0.3h0C42.5,50.8,42.3,51,42.2,50.9"/>
	<path class="st0" d="M41.9,51.1c0.1,0.2,0.5,0.2,0.6,0c-0.1,0-0.3-0.1-0.3-0.2c0,0,0,0,0,0C42.1,51,42,51.2,41.9,51.1"/>
	<path class="st0" d="M43.4,48.7c-0.7,0-0.9,0.6-0.9,1c0,0.3,0.2,0.3,0.5,0.2c0.1,0,0.3-0.2,0.2-0.5C43.1,49.3,43.1,49,43.4,48.7"/>
	<path class="st4" d="M40.9,38.2c0.3,0.2,0.2,0.9,0,1.2c0-0.2,0.1-0.6-0.1-0.8L40.9,38.2z"/>
	<path class="st7" d="M41.1,41.5c-1.5,0.6-1.8-0.3-1.8-0.6c0-0.3-0.1-0.7-0.2-1c-0.2-0.5-0.1-0.8,0.3-1.1c0.5-0.3,0.9-0.6,1.2-0.8
		c0.2-0.2,0.5-0.4,0.3,0.1c-0.1,0.2-0.2,0.7-0.5,1c-0.3,0.3-0.4,0.5-0.2,0.7c0.2,0.2,0.9-0.2,1.2-0.5c0.1,0.2-0.2,0.5-0.5,0.6
		c-0.3,0.1-0.8,0.2-0.8,0.4c0.1,0.3,0.7,0.1,1.3,0.1C41.2,40.7,41,41,41.1,41.5"/>
	<path class="st7" d="M43.6,50.2c0.5-0.2,1.4-0.7,0.9-2c-0.7-1.6-2.6-0.4-3.1-1.1c-0.7-1-0.6-1.6,1.2-2.9c1.7-1.3,1.5-2.1,1-2.6
		c-0.1-0.2-0.6-0.6-1-0.6c-0.4,0-0.6,0.4-0.6,0.7c0.4,0.3,0.6,1,0.2,1.3c-1.5,1.1-3,2.3-2.3,4.3c0.5,1.5,1.8,1.3,2.3,1.3
		c0.8,0,1.4,0,1.2,0.5c0,0.1-0.1,0.2-0.2,0.3c0,0.1,0,0.3,0.1,0.4c0.1,0,0.3,0,0.4,0.1C43.6,49.9,43.6,50.1,43.6,50.2"/>
	<path class="st6" d="M41.2,45.5C40.9,46,41,46.5,41.4,47c0.5,0.7,2.4-0.5,3.1,1.1c0.5,1.3-0.4,1.8-0.9,2c-0.1-0.1,0-0.3-0.1-0.4
		c-0.1-0.1-0.2-0.1-0.4-0.1c0-0.1,0-0.3,0-0.4c0.1-0.1,0.2-0.2,0.2-0.3c0.2-0.5-0.5-0.4-1.2-0.5C40.4,48.4,40.5,46.4,41.2,45.5"/>
	<path class="st6" d="M42.1,41.3c0.1-0.2,0.3-0.4,0.5-0.4c0.4,0,0.9,0.4,1,0.6c0.5,0.5,0.7,1.3-0.8,2.5
		C43.9,43.2,43.2,41.5,42.1,41.3"/>
	<path class="st7" d="M41.9,51.1c-1.1,0.9-2,0.3-2.2-0.9c-0.2-0.8-0.4-1-1-1.5c-1-0.7-0.6-1.6-0.3-2.4c0.3-0.7-0.1-1-0.6-1.3
		c-0.5-0.2-1.6-0.8-0.1-0.8c1.6,0,1.7,1.8,1.4,2.4c-0.3,0.6-0.4,1.1,0.5,1.4c0.9,0.4,0.6,1.7,1.3,2.1c0.1,0.1,0.2,0.1,0.3,0.1
		C41.3,50.7,41.5,51.1,41.9,51.1"/>
	<path class="st6" d="M37.1,44.3c0.1-0.1,0.2-0.4-0.1-0.5c-0.4-0.1-0.4,0.2-0.6,0.3c-0.3,0.1-0.3,0.2-0.1,0.4c0.2,0.1,0,0.4,0.4,0.5
		c0.3,0.1,0.4-0.2,0.3-0.4C37,44.5,37,44.3,37.1,44.3"/>
	<path class="st6" d="M37.5,44.4c0.1-0.1,0.2-0.4-0.1-0.5c-0.4-0.1-0.4,0.2-0.6,0.3c-0.3,0.1-0.3,0.2-0.1,0.4c0.2,0.1,0,0.4,0.4,0.5
		c0.3,0.1,0.4-0.2,0.3-0.4C37.4,44.6,37.4,44.5,37.5,44.4"/>
	<path class="st6" d="M37.9,44.5c0.1-0.1,0.2-0.4-0.1-0.5c-0.4-0.1-0.4,0.2-0.6,0.3c-0.3,0.1-0.3,0.2-0.1,0.4c0.2,0.1,0,0.4,0.4,0.5
		c0.3,0.1,0.4-0.2,0.3-0.4C37.8,44.7,37.8,44.6,37.9,44.5"/>
</g>
</svg>
