<?xml version="1.0" encoding="utf-8"?>
<!-- Generator: Adobe Illustrator 21.1.0, SVG Export Plug-In . SVG Version: 6.00 Build 0)  -->
<svg version="1.1" id="Capa_1" xmlns="http://www.w3.org/2000/svg" xmlns:xlink="http://www.w3.org/1999/xlink" x="0px" y="0px"
	 viewBox="0 0 95 98" style="enable-background:new 0 0 95 98;" xml:space="preserve">
<style type="text/css">
	.st0{fill:none;}
	.st1{fill:#DCDCDC;}
	.st2{clip-path:url(#SVGID_2_);fill:url(#SVGID_3_);}
	.st3{clip-path:url(#SVGID_5_);fill:url(#SVGID_6_);}
	.st4{fill:#848484;}
	.st5{clip-path:url(#SVGID_8_);fill:url(#SVGID_9_);}
	.st6{fill:#DCDBDA;}
	.st7{opacity:0.25;}
	.st8{clip-path:url(#SVGID_11_);fill:#555554;}
</style>
<rect x="21.5" y="45" class="st0" width="64.6" height="3.3"/>
<rect x="-196.5" y="-354.9" class="st0" width="842.6" height="632"/>
<circle class="st0" cx="45.6" cy="45" r="46.5"/>
<g>
	<path class="st1" d="M94.7,49c0,26.1-21.1,47.2-47.2,47.2C21.4,96.2,0.3,75.1,0.3,49S21.4,1.8,47.5,1.8C73.6,1.8,94.7,22.9,94.7,49
		"/>
	<g>
		<defs>
			<path id="SVGID_1_" d="M75.1,24.4l-55.2,0c-1.6,0-2.8,1.3-2.8,2.8l0,3.8c0,1.6,1.3,2.8,2.8,2.8l55.2,0c1.6,0,2.8-1.3,2.8-2.8
				l0-3.9C77.9,25.7,76.7,24.4,75.1,24.4C75.1,24.4,75.1,24.4,75.1,24.4"/>
		</defs>
		<clipPath id="SVGID_2_">
			<use xlink:href="#SVGID_1_"  style="overflow:visible;"/>
		</clipPath>
		
			<linearGradient id="SVGID_3_" gradientUnits="userSpaceOnUse" x1="-583.1406" y1="511.0797" x2="-582.4725" y2="511.0797" gradientTransform="matrix(0 -14.3219 -14.3219 0 7367.1406 -8317.6816)">
			<stop  offset="0" style="stop-color:#281F1F"/>
			<stop  offset="1.543450e-03" style="stop-color:#281F1F"/>
			<stop  offset="0.2353" style="stop-color:#2C2323"/>
			<stop  offset="0.4912" style="stop-color:#373131"/>
			<stop  offset="0.7566" style="stop-color:#4A4646"/>
			<stop  offset="0.9984" style="stop-color:#616161"/>
			<stop  offset="1" style="stop-color:#616161"/>
		</linearGradient>
		<rect x="17" y="24.4" class="st2" width="60.9" height="9.6"/>
	</g>
	<g>
		<defs>
			<path id="SVGID_4_" d="M18.9,29.2l0,2.6c0,0.8,1.3,1.4,2.8,1.4l51.4,0c1.6,0,2.8-0.6,2.8-1.4l0-2.5H18.9z"/>
		</defs>
		<clipPath id="SVGID_5_">
			<use xlink:href="#SVGID_4_"  style="overflow:visible;"/>
		</clipPath>
		
			<linearGradient id="SVGID_6_" gradientUnits="userSpaceOnUse" x1="-612.7943" y1="575.1842" x2="-612.126" y2="575.1842" gradientTransform="matrix(-3.819400e-03 5.9954 5.9954 3.819400e-03 -3403.3201 3700.9734)">
			<stop  offset="0" style="stop-color:#281F1F"/>
			<stop  offset="1.543450e-03" style="stop-color:#281F1F"/>
			<stop  offset="0.2357" style="stop-color:#2C2323"/>
			<stop  offset="0.492" style="stop-color:#373131"/>
			<stop  offset="0.7578" style="stop-color:#4A4646"/>
			<stop  offset="1" style="stop-color:#616161"/>
			<stop  offset="1" style="stop-color:#616161"/>
		</linearGradient>
		<rect x="18.9" y="29.2" class="st3" width="57.1" height="4"/>
	</g>
	<polygon class="st4" points="66.5,33.2 72,33.2 71.1,32.3 69.6,31.6 65.6,31.6 65.6,33.2 	"/>
	<g>
		<defs>
			<path id="SVGID_7_" d="M72,33.2C72,33.2,72,33.2,72,33.2C72,33.2,72,33.2,72,33.2 M23.7,38.1c0,0.2,0,0.4,0,0.5h0v28.3v6.7v7.2
				l4.7-3.8l4.7,3.8l4.7-3.8l4.7,3.8l4.7-3.8l4.7,3.8l4.7-3.8l4.7,3.8l4.7-3.8v-3.3V60.4V38.6h0c0-0.2,0-0.4,0-0.5
				c0-3.4,1.3-5,3.4-5.8c0.8-0.3,1.6,0.1,2.2,0.4c0.4,0.2,0.6,0.4,0.7,0.5c-0.1-0.2-0.8-1.5-2.5-1.5H35.4c-0.6,0-1.3,0-1.9,0
				C28,31.6,23.7,31.9,23.7,38.1"/>
		</defs>
		<clipPath id="SVGID_8_">
			<use xlink:href="#SVGID_7_"  style="overflow:visible;"/>
		</clipPath>
		
			<linearGradient id="SVGID_9_" gradientUnits="userSpaceOnUse" x1="-589.9585" y1="526.3175" x2="-589.2905" y2="526.3175" gradientTransform="matrix(0 -73.5381 -73.5381 0 38752.2305 -43303.6562)">
			<stop  offset="0" style="stop-color:#FFFFFF"/>
			<stop  offset="1.543450e-03" style="stop-color:#FFFFFF"/>
			<stop  offset="0.2454" style="stop-color:#FBFBFB"/>
			<stop  offset="0.5124" style="stop-color:#EDEDED"/>
			<stop  offset="0.7893" style="stop-color:#D8D8D8"/>
			<stop  offset="0.9984" style="stop-color:#C2C2C2"/>
			<stop  offset="1" style="stop-color:#C2C2C2"/>
		</linearGradient>
		<rect x="23.7" y="31.6" class="st5" width="48.4" height="49.1"/>
	</g>
	<path class="st4" d="M49.6,45.7l-19.2,0c-0.3,0-0.5-0.2-0.5-0.5l0-1.5c0-0.3,0.2-0.5,0.5-0.5l19.2,0c0.3,0,0.5,0.2,0.5,0.5l0,1.5
		C50.1,45.4,49.9,45.7,49.6,45.7"/>
	<path class="st4" d="M49.6,52.7l-19.2,0c-0.3,0-0.5-0.2-0.5-0.5l0-1.5c0-0.3,0.2-0.5,0.5-0.5l19.2,0c0.3,0,0.5,0.2,0.5,0.5l0,1.5
		C50.1,52.5,49.9,52.7,49.6,52.7"/>
	<path class="st4" d="M49.6,59.7l-19.2,0c-0.3,0-0.5-0.2-0.5-0.5l0-1.5c0-0.3,0.2-0.5,0.5-0.5l19.2,0c0.3,0,0.5,0.2,0.5,0.5l0,1.5
		C50.1,59.5,49.9,59.7,49.6,59.7"/>
	<path class="st4" d="M57.6,45.7l-2.9,0c-0.3,0-0.5-0.2-0.5-0.5l0-1.5c0-0.3,0.2-0.5,0.5-0.5l2.9,0c0.3,0,0.5,0.2,0.5,0.5v1.5
		C58.1,45.4,57.9,45.7,57.6,45.7"/>
	<path class="st4" d="M57.6,52.7l-2.9,0c-0.3,0-0.5-0.2-0.5-0.5l0-1.5c0-0.3,0.2-0.5,0.5-0.5l2.9,0c0.3,0,0.5,0.2,0.5,0.5v1.5
		C58.1,52.5,57.9,52.7,57.6,52.7"/>
	<path class="st4" d="M57.6,59.7l-2.9,0c-0.3,0-0.5-0.2-0.5-0.5l0-1.5c0-0.3,0.2-0.5,0.5-0.5l2.9,0c0.3,0,0.5,0.2,0.5,0.5v1.5
		C58.1,59.5,57.9,59.7,57.6,59.7"/>
	<path class="st6" d="M62.2,66.6l-34,0c-0.3,0-0.5-0.2-0.5-0.5l0-1.3c0-0.3,0.2-0.5,0.5-0.5l34,0c0.3,0,0.5,0.2,0.5,0.5l0,1.3
		C62.7,66.3,62.5,66.6,62.2,66.6"/>
	<g class="st7">
		<g>
			<defs>
				<rect id="SVGID_10_" x="24.2" y="31.6" width="47.8" height="3.3"/>
			</defs>
			<clipPath id="SVGID_11_">
				<use xlink:href="#SVGID_10_"  style="overflow:visible;"/>
			</clipPath>
			<path class="st8" d="M69.6,31.6H35.5c-5.3,0-9.8-0.2-11.2,3.3h42c0.6-1.4,1.6-2.2,2.9-2.7c1.2-0.4,2.7,0.7,2.9,0.8
				C71.9,33,71.2,31.6,69.6,31.6"/>
		</g>
	</g>
</g>
</svg>
