<?xml version="1.0" encoding="utf-8"?>
<!-- Generator: Adobe Illustrator 21.1.0, SVG Export Plug-In . SVG Version: 6.00 Build 0)  -->
<svg version="1.1" id="Capa_1" xmlns="http://www.w3.org/2000/svg" xmlns:xlink="http://www.w3.org/1999/xlink" x="0px" y="0px"
	 viewBox="0 0 95 84" style="enable-background:new 0 0 95 84;" xml:space="preserve">
<style type="text/css">
	.st0{clip-path:url(#SVGID_2_);fill:url(#SVGID_3_);}
	.st1{opacity:0.15;}
	.st2{clip-path:url(#SVGID_5_);fill:#363636;}
	.st3{fill-rule:evenodd;clip-rule:evenodd;fill:#FFFFFF;}
	.st4{fill:#FFFFFF;}
	.st5{opacity:0.33;}
	.st6{clip-path:url(#SVGID_7_);fill:#ECE5DB;}
	.st7{clip-path:url(#SVGID_9_);fill:#ECE5DB;}
	.st8{fill:#E1BB80;}
	.st9{clip-path:url(#SVGID_11_);fill:url(#SVGID_12_);}
</style>
<g>
	<g>
		<defs>
			<path id="SVGID_1_" d="M86.8,1.9L8,2.2c-3.6,0-6.6,3-6.5,6.6l0.1,38.6c0,3.6,3,6.6,6.6,6.5L87,53.7c3.6,0,6.6-3,6.5-6.6L93.4,8.4
				C93.3,4.8,90.4,1.9,86.8,1.9C86.8,1.9,86.8,1.9,86.8,1.9"/>
		</defs>
		<clipPath id="SVGID_2_">
			<use xlink:href="#SVGID_1_"  style="overflow:visible;"/>
		</clipPath>
		
			<linearGradient id="SVGID_3_" gradientUnits="userSpaceOnUse" x1="-263.4568" y1="1147.3293" x2="-263.2031" y2="1147.3293" gradientTransform="matrix(362.0899 -1.3308 -1.3308 -362.0899 96923.4375 415113.8438)">
			<stop  offset="0" style="stop-color:#9F4141"/>
			<stop  offset="1.543450e-03" style="stop-color:#9F4141"/>
			<stop  offset="0.2768" style="stop-color:#9B3D3D"/>
			<stop  offset="0.5757" style="stop-color:#8E3333"/>
			<stop  offset="0.8845" style="stop-color:#782121"/>
			<stop  offset="0.9984" style="stop-color:#6E1919"/>
			<stop  offset="1" style="stop-color:#6E1919"/>
		</linearGradient>
		<polygon class="st0" points="1.3,1.9 93.5,1.6 93.7,54 1.5,54.3 		"/>
	</g>
	<g class="st1">
		<g>
			<defs>
				<rect id="SVGID_4_" x="1.5" y="8.5" width="35.4" height="9.3"/>
			</defs>
			<clipPath id="SVGID_5_">
				<use xlink:href="#SVGID_4_"  style="overflow:visible;"/>
			</clipPath>
			<path class="st2" d="M35.3,17.7L1.5,17.9l0-9.2l33.8-0.1c0.9,0,1.6,0.7,1.6,1.6l0,6C36.9,17,36.2,17.7,35.3,17.7"/>
		</g>
	</g>
	<path class="st3" d="M10.7,12.4c0-0.1-0.1-0.1-0.1-0.2c-0.1-0.1-0.2-0.1-0.3-0.2c-0.3-0.1-0.6-0.2-0.9-0.2c-0.2,0-0.4,0-0.6,0
		c-0.3,0-0.5,0-0.8,0c-0.2,0-0.4,0-0.7,0.1c-0.2,0-0.5,0.1-0.7,0.2c-0.1,0.1-0.2,0.1-0.3,0.2c-0.1,0.1-0.1,0.3,0,0.4
		c0.1,0.1,0.1,0.1,0.2,0.1C6.5,13,6.7,13,6.9,13.1c0.2,0.1,0.4,0.1,0.6,0.1c0.1,0,0.2,0,0.2,0C7.9,12.8,8,12.4,8.2,12c0,0,0,0,0,0
		c0,0.4,0,0.8,0.1,1.3c0,0,0.1,0,0.1,0c0.2,0,0.3,0,0.5,0c0.2,0,0.5,0,0.7-0.1c0.2,0,0.5-0.1,0.7-0.2c0.1-0.1,0.3-0.1,0.3-0.2
		C10.7,12.6,10.7,12.5,10.7,12.4"/>
	<path class="st3" d="M7.7,13.3c-0.3,0-0.6,0-0.9,0.1c-0.3,0.1-0.5,0.1-0.8,0.2c-0.2,0.1-0.3,0.2-0.4,0.3c-0.1,0.1-0.1,0.2-0.1,0.4
		c0,0.1,0.1,0.2,0.2,0.3c0.2,0.1,0.4,0.2,0.6,0.3C6.6,14.9,6.8,15,7.1,15c0,0,0.1,0,0.1,0C7.4,14.4,7.6,13.9,7.7,13.3
		C7.7,13.3,7.7,13.3,7.7,13.3"/>
	<path class="st3" d="M9.8,13.7c-0.2-0.1-0.4-0.2-0.7-0.3c-0.2-0.1-0.5-0.1-0.7-0.1c-0.1,0-0.1,0-0.2,0c0,0.6,0.1,1.2,0.1,1.7
		c0,0,0,0,0,0c0.1,0,0.3,0,0.4-0.1c0.3,0,0.5-0.1,0.7-0.2c0.2-0.1,0.3-0.2,0.4-0.3c0.1-0.2,0.2-0.4,0-0.5C10,13.8,9.9,13.7,9.8,13.7
		"/>
	<path class="st4" d="M13.9,13.6c0.2-0.1,0.3-0.2,0.3-0.4l0-0.3c0-0.3-0.2-0.4-0.5-0.4l-1.9,0l0,2.2l1.7,0c0.4,0,0.7-0.2,0.7-0.4
		l0-0.3C14.2,13.7,14.1,13.6,13.9,13.6 M12.3,13.8l1.1,0c0.1,0,0.1,0,0.2,0c0,0,0.1,0.1,0.1,0.1l0,0.2c0,0.1,0,0.1-0.1,0.1
		c0,0-0.1,0-0.2,0l-1.1,0L12.3,13.8z M13.7,13.2c0,0,0,0.1-0.2,0.1l-1.1,0l0-0.5l1.1,0c0.2,0,0.2,0.1,0.2,0.1L13.7,13.2z"/>
	<path class="st4" d="M16.2,12.5l-0.5,0l-1.2,2.2l0.6,0l0.2-0.5l1.3,0l0.3,0.5l0.6,0L16.2,12.5L16.2,12.5z M16.4,13.8l-0.9,0
		l0.4-0.8L16.4,13.8z"/>
	<path class="st4" d="M19.9,13.6c0,0,0,0.1,0,0.3c-0.1-0.1-0.1-0.1-0.2-0.2l-1.5-1.3l0,0l-0.4,0l0,2.2l0.5,0l0-1.2
		c0-0.1,0-0.2,0-0.3c0,0,0.1,0.1,0.1,0.1l1.6,1.3l0,0l0.4,0l0-2.2l-0.5,0L19.9,13.6z"/>
	<path class="st4" d="M23.2,12.5l-1.6,0c-0.2,0-0.4,0-0.4,0.1C21.1,12.6,21,12.8,21,13l0,1.1c0,0.2,0,0.3,0.1,0.4
		c0.1,0.1,0.2,0.1,0.4,0.1l1.6,0c0.2,0,0.4,0,0.4-0.1c0.1-0.1,0.1-0.2,0.1-0.4l0-1.1c0-0.2,0-0.3-0.1-0.4
		C23.5,12.5,23.4,12.5,23.2,12.5 M23.2,12.9l0,1.3l-1.6,0l0-1.3L23.2,12.9z"/>
	<path class="st4" d="M26.2,13.8c0.3,0,0.5-0.1,0.5-0.4l0-0.5c0-0.3-0.2-0.4-0.5-0.4l-1.9,0l0,2.2l0.5,0l0-0.8l0.4,0l0.9,0.8l0,0
		l0.8,0l-1-0.8L26.2,13.8z M24.9,12.9l1.1,0c0.1,0,0.1,0,0.2,0c0,0,0.1,0.1,0.1,0.1l0,0.3c0,0.1,0,0.1-0.1,0.1c0,0-0.1,0-0.2,0
		l-1.1,0L24.9,12.9z"/>
	<polygon class="st4" points="27.1,12.9 28.1,12.9 28.1,14.6 28.7,14.6 28.7,12.9 29.7,12.9 29.7,12.4 27.1,12.4 	"/>
	<polygon class="st4" points="30.6,14.2 30.6,13.7 31.7,13.7 31.7,13.3 30.6,13.3 30.6,12.8 32.3,12.8 32.3,12.4 30.1,12.4 
		30.1,14.6 32.3,14.6 32.3,14.2 	"/>
	<g class="st5">
		<g>
			<defs>
				<rect id="SVGID_6_" x="5.9" y="34.4" width="82.9" height="4.5"/>
			</defs>
			<clipPath id="SVGID_7_">
				<use xlink:href="#SVGID_6_"  style="overflow:visible;"/>
			</clipPath>
			<path class="st6" d="M87.6,38.6L7.1,38.9c-0.7,0-1.2-0.5-1.2-1.2l0-1.8c0-0.7,0.5-1.2,1.2-1.2l80.5-0.3c0.7,0,1.2,0.5,1.2,1.2
				l0,1.8C88.8,38.1,88.3,38.6,87.6,38.6"/>
		</g>
	</g>
	<g class="st5">
		<g>
			<defs>
				<rect id="SVGID_8_" x="6.4" y="41.2" width="30.8" height="4.2"/>
			</defs>
			<clipPath id="SVGID_9_">
				<use xlink:href="#SVGID_8_"  style="overflow:visible;"/>
			</clipPath>
			<path class="st7" d="M36.1,45.2L7.6,45.3c-0.7,0-1.2-0.5-1.2-1.2l0-1.7c0-0.7,0.5-1.2,1.2-1.2l28.5-0.1c0.7,0,1.2,0.5,1.2,1.2
				l0,1.7C37.3,44.7,36.7,45.2,36.1,45.2"/>
		</g>
	</g>
	<path class="st8" d="M14.2,30.8l-6.9,0c-0.7,0-1.2-0.5-1.2-1.2l0-4.7c0-0.7,0.5-1.2,1.2-1.2l6.9,0c0.7,0,1.2,0.5,1.2,1.2l0,4.7
		C15.4,30.2,14.9,30.8,14.2,30.8"/>
	<g>
		<defs>
			<path id="SVGID_10_" d="M26.5,35.7v17.5c0,0,1.4,18.7,22.8,28.3c21.4-9.6,22.8-28.3,22.8-28.3V35.7l-22.8-5.8L26.5,35.7z"/>
		</defs>
		<clipPath id="SVGID_11_">
			<use xlink:href="#SVGID_10_"  style="overflow:visible;"/>
		</clipPath>
		
			<linearGradient id="SVGID_12_" gradientUnits="userSpaceOnUse" x1="-263.3237" y1="1149.1295" x2="-263.07" y2="1149.1295" gradientTransform="matrix(179.976 0 0 -179.976 47418.3828 206871.375)">
			<stop  offset="0" style="stop-color:#88B655"/>
			<stop  offset="1" style="stop-color:#70B4AA"/>
		</linearGradient>
		<rect x="26.5" y="29.9" class="st9" width="45.7" height="51.6"/>
	</g>
	<path class="st4" d="M57.9,46.4h-2.2v-2.9c0-3.7-3-6.7-6.7-6.7H49h-0.1c-3.7,0-6.7,3-6.7,6.7v2.9h-1.6c-1.5,0-2.7,1.2-2.7,2.7v14.7
		c0,1.5,1.2,2.7,2.7,2.7h17.3c1.5,0,2.7-1.2,2.7-2.7V49.1C60.6,47.6,59.4,46.4,57.9,46.4 M50.5,57.4v3.1h-2.5v-3.1
		c-1-0.5-1.7-1.5-1.7-2.6c0-1.6,1.3-2.9,2.9-2.9c1.6,0,2.9,1.3,2.9,2.9C52.2,55.9,51.5,56.9,50.5,57.4 M53,46.4H45v-2.9
		c0-2.1,1.7-3.8,3.8-3.8H49h0.1c2.1,0,3.8,1.7,3.8,3.8V46.4z"/>
</g>
</svg>
